[gd_resource type="AudioBusLayout" load_steps=3 format=2]

[ext_resource path="res://audioeffectreverb03.tres" type="AudioEffectReverb" id=1]

[sub_resource type="AudioEffectReverb" id=3]
resource_name = "Reverb"
hipass = 0.31
dry = 0.76

[resource]
bus/1/name = "area01"
bus/1/solo = false
bus/1/mute = false
bus/1/bypass_fx = false
bus/1/volume_db = 0.267241
bus/1/send = "Master"
bus/1/effect/0/effect = SubResource( 3 )
bus/1/effect/0/enabled = true
bus/2/name = "area02"
bus/2/solo = false
bus/2/mute = false
bus/2/bypass_fx = false
bus/2/volume_db = 0.0
bus/2/send = "Master"
bus/2/effect/0/effect = ExtResource( 1 )
bus/2/effect/0/enabled = true
